<svg xmlns="http://www.w3.org/2000/svg" viewBox="5836.518 739.518 25.177 25.177">
  <path id="Path_7" data-name="Path 7" d="M24.66,2H4.518A2.525,2.525,0,0,0,2,4.518v22.66l5.035-5.035H24.66a2.525,2.525,0,0,0,2.518-2.518V4.518A2.525,2.525,0,0,0,24.66,2ZM10.812,13.33H8.294V10.812h2.518Zm5.035,0H13.33V10.812h2.518Zm5.035,0H18.365V10.812h2.518Z" transform="translate(5834.518 737.518)"/>
</svg>
