<svg xmlns="http://www.w3.org/2000/svg" viewBox="5676.801 741.603 28.014 22.411">
  <path id="Path_9" data-name="Path 9" d="M27.213,4H4.8A2.81,2.81,0,0,0,2,6.8V23.61a2.81,2.81,0,0,0,2.8,2.8H27.213a2.81,2.81,0,0,0,2.8-2.8V6.8A2.81,2.81,0,0,0,27.213,4Zm0,5.6-11.206,7L4.8,9.6V6.8l11.206,7,11.206-7Z" transform="translate(5674.801 737.603)"/>
</svg>
