<?xml version="1.0" encoding="utf-8"?>
<!-- Generator: Adobe Illustrator 19.0.0, SVG Export Plug-In . SVG Version: 6.00 Build 0)  -->
<svg version="1.1" id="Layer_1" xmlns="http://www.w3.org/2000/svg" xmlns:xlink="http://www.w3.org/1999/xlink" x="0px" y="0px"
	 viewBox="-206 541.5 429 108" style="enable-background:new -206 541.5 429 108;" xml:space="preserve">
<style type="text/css">
	.st0{enable-background:new    ;}
	.st1{fill:#656565;}
	.st2{font-family:'SimplonBP-Medium';}
	.st3{font-size:41.2644px;}
	.st4{fill:none;}
</style>
<g>
	<defs>
		<rect id="SVGID_1_" x="-205.5" y="541.5" width="182.5" height="102"/>
	</defs>
	<clipPath id="SVGID_2_">
		<use xlink:href="#SVGID_1_"  style="overflow:visible;"/>
	</clipPath>
	<g style="clip-path:url(#SVGID_2_);enable-background:new    ;">
		
			<image style="overflow:visible;" width="705" height="677" id="Logo" xlink:href="6171D935167798CA.png"  transform="matrix(0.3856 0 0 0.3856 -253.7949 462.836)">
		</image>
	</g>
</g>
<g class="st0">
	<path class="st1" d="M-3.7,577.3h9.3c1.6,0,3,0.2,4.3,0.7c1.2,0.4,2.2,1.1,2.9,1.9c0.7,0.8,1.3,1.7,1.6,2.8
		c0.3,1.1,0.5,2.2,0.5,3.6c0,1.3-0.2,2.5-0.5,3.5c-0.3,1-0.9,2-1.6,2.8c-0.7,0.8-1.7,1.4-2.9,1.9c-1.2,0.4-2.6,0.7-4.3,0.7h-6.1
		v11.2h-3.2V577.3z M5.6,591.8c2.1,0,3.6-0.5,4.6-1.6c1-1,1.5-2.4,1.5-4.1s-0.5-3.1-1.5-4.1c-1-1-2.5-1.6-4.6-1.6h-6.1v11.4H5.6z"/>
	<path class="st1" d="M23.9,577.3h3.6l9.3,28.9h-3.2l-2.6-8.1H20.5l-2.6,8.1h-3.2L23.9,577.3z M30,595.1l-4.3-13.4l-4.3,13.4H30z"/>
	<path class="st1" d="M39.4,586.7c0-3,0.9-5.4,2.6-7.1c1.7-1.8,4-2.6,6.8-2.6c2.7,0,4.8,0.8,6.5,2.4c1.7,1.6,2.6,3.8,2.8,6.5h-3.2
		c-0.2-1.9-0.8-3.3-1.9-4.3c-1.1-1-2.5-1.5-4.2-1.5c-1.8,0-3.3,0.6-4.4,1.7c-1.2,1.2-1.7,2.8-1.7,4.9v10.2c0,2.1,0.6,3.7,1.7,4.9
		c1.2,1.2,2.6,1.7,4.4,1.7s3.3-0.6,4.4-1.7c1.2-1.2,1.7-2.8,1.7-4.9V594h-6.1v-3.1H58v6c0,3-0.9,5.4-2.6,7.1c-1.7,1.8-4,2.6-6.8,2.6
		s-5-0.9-6.8-2.6c-1.7-1.8-2.6-4.1-2.6-7.1V586.7z"/>
	<path class="st1" d="M63.2,577.3h3.2v19.5c0,2.1,0.6,3.7,1.7,4.9c1.2,1.2,2.6,1.7,4.4,1.7s3.3-0.6,4.4-1.7c1.2-1.2,1.7-2.8,1.7-4.9
		v-19.5h3.2v19.5c0,3-0.9,5.4-2.6,7.1c-1.7,1.8-4,2.6-6.8,2.6s-5-0.9-6.8-2.6c-1.7-1.8-2.6-4.1-2.6-7.1V577.3z"/>
	<path class="st1" d="M88.1,577.3h16.4v3.1H91.3v9.6h13.2v3.1H91.3v9.9h13.2v3.1H88.1V577.3z"/>
</g>
<text transform="matrix(1 0 0 1 107.1426 606.1705)" class="st1 st2 st3"> </text>
<g class="st0">
	<path class="st1" d="M118.8,577.3h17.6v5.5h-12v6.1h12v5.5h-12v11.8h-5.5V577.3z"/>
	<path class="st1" d="M146.7,577.3h5.3l10.3,28.9h-5.8l-2.1-5.8h-10.2l-2.1,5.8h-5.8L146.7,577.3z M149,570.9h7.2l-5.3,4.5h-5
		L149,570.9z M152.5,595.1l-3.2-9.4l-3.2,9.4H152.5z"/>
	<path class="st1" d="M163.7,595.9v-8.3c0-3.2,1-5.8,2.9-7.8c1.9-1.9,4.6-2.9,8-2.9c3.3,0,5.9,0.9,7.8,2.7c1.9,1.8,2.9,4.3,3,7.3
		h-5.6c-0.1-1.4-0.7-2.5-1.7-3.4c-1-0.8-2.2-1.2-3.6-1.2c-1.6,0-2.8,0.5-3.8,1.4s-1.5,2.2-1.5,3.8v8.3c0,1.6,0.5,2.9,1.5,3.8
		s2.3,1.4,3.8,1.4c1.5,0,2.7-0.4,3.6-1.2c1-0.8,1.5-1.9,1.7-3.4h5.6c-0.1,3.1-1.1,5.5-3,7.3c-1.9,1.8-4.5,2.7-7.8,2.7
		c-3.4,0-6.1-1-8-2.9S163.7,599.1,163.7,595.9z"/>
	<path class="st1" d="M189.5,577.3h5.5v28.9h-5.5V577.3z"/>
	<path class="st1" d="M200.4,577.3h5.5v23.4h12v5.5h-17.6V577.3z"/>
</g>
<rect x="-205.5" y="541.5" class="st4" width="428.5" height="108"/>
</svg>
