TOKEN;DOCUMENTO
0000800100215732336876;09287208000108      
0000800100215730879037;09912013000101      
0000800100215732333350;08280918000143      
0000800100215732338509;10368048000100      
0000800100215732337363;09464578000173      
0000800100215732335313;08875591000152      
0000800100215732337801;09652501000127      
0000800100215732334338;08628128000106      
0000800100215732336485;09181440000167      
0000800100215732334590;08698012000143      
0000800100215732336873;09285463000111      
0000800100215732336083;09065651000134      
0000800100215732337887;09912151000190      
0000800100215732337843;09750594000122      
0000800100215729743159;09548125000125      
0000800100215732339588;10801388000183      
0000800100215732339352;10695966000144      
0000800100215732333968;08528319000104      
0000800100215732337587;09553491000172      
0000800100215732335700;08976365000168      
0000800100215732336719;09244604000158      
0000800100215732335111;08825624000150      
0000800100215732338986;10537120000186      
0000800100215732339201;10623929000120      
0000800100215732340044;10999895000173      
0000800100215732338817;10478595000149      
0000800100215732336306;09130185000123      
0000800100215732340220;11099016000110      
0000800100215732338127;10228718000193      
0000800100215732337099;09362544000178      
0000800100215732333195;08334904000165      
0000800100215732336745;09251967000200      
0000800100215732337106;09365517000159      
0000800100215732339861;10907166000140      
0000800100215732334068;08563370000149      
0000800100215732337723;09610934000110      
0000800100215732338091;10213892000162      
0000800100215732340372;11182315000113      
0000800100215732338360;10319521000160      
0000800100215721404995;09378517000193      
0000800100215732337265;09423433000124      
0000800100215732336718;09244431000178      
0000800100215732339868;10915106000500      
0000800100215732336223;09105712000220      
0000800100215732335452;08916169000106      
0000800100215732336155;09085871000120      
0000800100215731321951;14091149000138      
0000800100215731594484;12937113000105      
0000800100215732284584;13054170000109      
0000800100215732287110;14633909000191      
0000800100215732288142;15275444000107      
0000800100215732285313;13462044000185      
0000800100215730820971;13876438000180      
0000800100215732285738;13713404000174      
0000800100215732284412;12960362000103      
0000800100215732286309;14118379000143      
0000800100215732284490;13015030000113      
0000800100215732285981;13893664000179      
0000800100215732284486;13012661000189      
0000800100215732284407;12958674000182      
0000800100215732286040;13939985000167      
0000800100215732284086;12717318000177      
0000800100215732283233;15435023000104      
0000800100215732284971;13260799000105      
0000800100215732283713;12452742000137      
0000800100215732286737;14387270000101      
0000800100215722448800;13988308000139      
