TOKEN;DOCUMENTO
0000800100226426310636;89387961320         
0000800100226429389366;03838582080         
0000800100226429390434;05723598961         
0000800100226429391142;08027690714         
0000800100226429389897;09952950691         
0000800100226429389380;09389937981         
0000800100226429389651;42230624687         
0000800100226429389411;17319134861         
0000800100226429391438;05070128604         
0000800100226429390113;06532319970         
0000800100226429390208;14797580780         
0000800100226429390207;07702591110         
0000800100226429391523;41367090563         
0000800100226429392394;04107126633         
0000800100226429392718;16898222015         
0000800100226429390559;06332040130         
0000800100226429391003;08292122486         
0000800100226429390446;07096093613         
0000800100226429393116;05626085670         
0000800100226429390839;04518735641         
0000800100226429392575;40771423691         
0000800100226429389384;08557408765         
0000800100226429392021;03439920860         
0000800100226429391431;22615869817         
0000800100226429391757;09300001701         
0000800100226429392665;05494466990         
0000800100226429390145;08999327701         
0000800100226429389878;10703056425         
0000800100226429389824;14644363120         
0000800100226429389621;72895950920         
0000800100226429393140;65029917268         
0000800100226429391268;08402970761         
0000800100226429389684;05648616856         
0000800100226429392727;03495642994         
0000800100226429392417;05598867729         
0000800100226429391351;81510497749         
0000800100226429389673;09093142682         
0000800100226429391184;94447470187         
0000800100226429391365;24844071734         
0000800100226429389535;04352215589         
0000800100226429389559;04676711921         
0000800100226429392252;08912968912         
0000800100226429390331;86811754753         
0000800100226429389877;01395811385         
0000800100226429393154;13572224675         
0000800100226429390887;70817162615         
0000800100226429393192;63598272049         
0000800100226429392950;08833211819         
0000800100226429390306;64364550787         
0000800100226429392854;02607897807         
0000800100226429392670;05048671309         
0000800100226429391417;83418024300         
0000800100226429389460;27597264879         
0000800100226429390003;70023771160         
0000800100226429391103;71300473720         
0000800100226429389770;01311934065         
0000800100226429390687;21776925807         
0000800100226429391441;05941332629         
0000800100226429390600;00123752507         
0000800100226429393057;00450281175         
0000800100226429390513;96619660606         
0000800100226429391854;99224585787         
0000800100226429390960;35444827387         
0000800100226429392552;10580910776         
0000800100226429391122;01866202502         
0000800100226429391066;70057130108         
0000800100226429389351;66120500715         
0000800100226429390984;61539058034         
0000800100226429392650;08777533429         
0000800100226429390301;05668011755         
0000800100226429390023;01737020661         
0000800100226429390546;00462479714         
0000800100226429391691;11205096701         
0000800100226429390891;41398513334         
0000800100226429390845;61153125749         
0000800100226429391750;12496653611         
0000800100226429389765;06747517440         
0000800100226429390420;59050764720         
0000800100226429389966;06193349910         
0000800100226429390095;04484572702         
0000800100226429391211;52566226504         
0000800100226429391084;17326109400         
0000800100226429390884;07122374610         
0000800100226429393061;64573818472         
0000800100226429391785;91268826634         
0000800100226429391434;26077365000108      
0000800100226429390916;00867323310         
0000800100226429391210;16170994738         
0000800100226429391338;00829047905         
0000800100226429390514;03386792782         
0000800100226429391319;25971006000137      
0000800100226429392018;63188449615         
0000800100226429390744;57965919087         
0000800100226429390536;98168002768         
0000800100226429390211;37387334854         
0000800100226429391650;04808880946         
0000800100226429390890;52855171253         
0000800100226429390289;05735129651         
0000800100226429393174;13062659670         
0000800100226429391269;04870893673         
0000800100226429391567;10186453655         
0000800100226429392366;02896176934         
0000800100226429391430;11358635633         
0000800100226429390963;29461740000         
0000800100226429390391;12697940430         
0000800100226429392171;05497031447         
0000800100226429391473;13615563000136      
0000800100226429391140;80147640644         
0000800100226429390005;05073831683         
0000800100226429389689;28902278808         
0000800100226429390329;15168060854         
0000800100226429389789;11429918659         
0000800100226429392814;05685282559         
0000800100226429390256;02874357928         
0000800100226429390333;66354870691         
0000800100226429390237;24942060000191      
0000800100226429390223;04211318454         
0000800100226429392230;09187612631         
0000800100226429392011;06631275482         
0000800100226429391553;18354858391         
0000800100226429391844;28464370091         
0000800100226429391996;56993145049         
0000800100226429390751;70075764199         
0000800100226429390068;15853981790         
0000800100226429390415;88935027120         
0000800100226429390293;15238832788         
0000800100226429393183;00456060219         
0000800100226429392721;00203953703         
0000800100226429392370;00683910302         
0000800100226429390044;13437720600         
0000800100226429392386;14206743746         
0000800100226429392023;00510591698         
0000800100226429391782;24340804991         
0000800100226429391728;10723701660         
0000800100226429390009;13125032709         
0000800100226429391992;35998300459         
0000800100226429392108;28731115004         
0000800100226429390874;02253797910         
0000800100226429391784;98903853172         
0000800100226429390202;12161724630         
0000800100226429389843;11705672663         
0000800100226429392435;13075436852         
0000800100226429389321;24868539000125      
0000800100226429390348;32186568691         
0000800100226429392848;73008150063         
0000800100226429389976;02185265474         
0000800100226429390042;32123272000         
0000800100226429391118;00072175796         
0000800100226429389702;33472300272         
0000800100226429391863;12659941700         
0000800100226429390292;24615223838         
0000800100226428980525;01297211669         
0000800100226429389860;74968190182         
0000800100226426227283;12483216773         
0000800100226429392587;91914949072         
0000800100226429391733;02916841652         
0000800100226429390912;02591025398         
0000800100226429389547;02567044736         
0000800100226429389508;93754884700         
0000800100226429390903;91856230244         
0000800100226429391763;13185314549         
0000800100226422543546;04259734687         
0000800100226429392668;82287309004         
0000800100226429391110;90037863487         
0000800100226429390392;00075674726         
0000800100226429392654;32369468149         
0000800100226429391244;24781703968         
0000800100226429392384;70341190152         
0000800100226429392454;64199053468         
0000800100226429390080;01123096740         
0000800100226429390159;01404800565         
0000800100226429391894;01560889594         
0000800100226429389647;05312039721         
0000800100226429389656;52280144620         
0000800100226429389562;08812924603         
0000800100226429393128;03362461611         
0000800100226429390707;21529230730         
0000800100226429391965;14206420904         
0000800100226429391882;99226995400         
0000800100226429391499;04491485135         
0000800100226423011038;28796586249         
0000800100226426228807;05657645197         
0000800100226426228926;06274505474         
0000800100226429018814;04790925161         
0000800100226425420461;97482161520         
000080010022647087841;23767987953         
0000800100226429392840;67338160597         
0000800100226428337524;66427282468         
0000800100226429390789;11299974724         
0000800100226429392734;49102222787         
0000800100226426268006;13035570701         
0000800100226429392937;76571912520         
0000800100226429138589;05655460319         
0000800100226429393084;42588359515         
0000800100226429391891;17242941725         
0000800100226429391949;10486323692         
0000800100226429390091;55227511772         
0000800100226429391934;79190529987         
0000800100226429391602;01326302655         
0000800100226429389735;35549629453         
0000800100226429390977;09715466494         
0000800100226429392278;06990798530         
0000800100226424830776;40668908734         
0000800100226428869306;02555460250         
0000800100226429075967;07124845742         
0000800100226429391889;08147029705         
0000800100226429390226;17397762000176      
0000800100226429390750;12172619663         
0000800100226429392241;38804107472         
0000800100226429391751;04896256573         
0000800100226429389758;14537910780         
0000800100226429390568;64906159672         
0000800100226424277634;03825917126         
0000800100226429389544;60797147365         
0000800100226429391095;39142027772         
0000800100226429392945;07027642301         
0000800100226429391645;07847574705         
0000800100226429390842;70224146459         
0000800100226429258229;28202490430         
0000800100226429391904;00272946680         
0000800100226429389785;04000249932         
0000800100226429391836;08856855470         
0000800100226429392595;06668356087         
0000800100226429275780;26348846000100      
0000800100226429392045;87955954068         
0000800100226429389726;02404700286         
0000800100226429390605;26064935000125      
0000800100226429389611;04681356182         
0000800100226429391601;10314658718         
0000800100226429393142;08884008611         
0000800100226429390865;94808724120         
0000800100226429392671;01170746403         
0000800100226429111550;03856816151         
0000800100226429389437;97754595168         
0000800100226429390462;04620344451         
0000800100226429390601;01159299595         
0000800100226429389595;01133361790         
0000800100226429391456;09697313962         
0000800100226428869850;04750808407         
0000800100226429389911;08046275689         
0000800100226429392466;16500076710         
0000800100226429393083;73521124215         
0000800100226429393160;72529350191         
0000800100226429389517;00992744504         
0000800100226429392825;69636893691         
0000800100226429209235;04125746320         
0000800100226429391556;04571049374         
0000800100226429390950;85773530953         
0000800100226429392708;34060570125         
0000800100226429391566;01905906102         
0000800100226429390356;53529391620         
0000800100226429390197;34949295802         
0000800100226429391327;97883190687         
0000800100226429389968;03964373117         
0000800100226429389440;06653016692         
0000800100226429390459;59295791649         
0000800100226429115917;05624730500         
0000800100226429392796;02712556097         
0000800100226429389967;02387374380         
0000800100226429391866;06911478685         
0000800100226429390663;11869270622         
0000800100226429391207;07319643499         
0000800100226429392738;01526753375         
0000800100226429391910;57861331920         
0000800100226429390102;51045249734         
0000800100226429390410;57638209753         
0000800100226429392906;93720483720         
0000800100226426308435;44149530068         
0000800100226429392809;22570519120         
0000800100226429389942;05695040230         
0000800100226429389927;26339276000192      
0000800100226429391655;64138267620         
0000800100226429392284;05149802654         
0000800100226429389422;03619230234         
0000800100226429391615;05116678504         
0000800100226429390584;89347919187         
0000800100226429391027;59863137200         
0000800100226426229301;09099915969         
0000800100226429392484;12839683636         
0000800100226428710351;04466920427         
0000800100226429392914;10578607433         
0000800100226429391100;01100793453         
0000800100226429390229;16019926702         
0000800100226429392019;01383880832         
0000800100226429390114;23906716000158      
0000800100226429392081;65885970297         
0000800100226429392242;69025380263         
0000800100226429392287;08013199940         
0000800100226429389336;07515987472         
0000800100226429391487;06123008544         
0000800100226429391005;01255183748         
0000800100226429389407;33437025015         
0000800100226429389497;64658244934         
0000800100226429390538;13718732670         
0000800100226429391194;08023546619         
0000800100226429391500;06454366154         
0000800100226429391242;01367675910         
0000800100226429390904;01284928640         
0000800100226429392083;54555515820         
0000800100226429392905;70406162115         
0000800100226429389357;04268638601         
0000800100226429391086;06208100259         
0000800100226429392487;09948335473         
0000800100226429390641;10245358943         
0000800100226429390170;95291644168         
0000800100226429389534;07903217771         
0000800100226429390382;04643236302         
0000800100226429309515;92069231968         
0000800100226429075145;04817416319         
0000800100226429389616;13787841628         
0000800100226429076308;08596167706         
0000800100226429392057;00922932719         
0000800100226429392270;04880400513         
0000800100226429392431;06199966929         
0000800100226429391339;70469254106         
0000800100226429389711;63920450159         
0000800100226429389883;59793112700         
0000800100226426130902;30098998153         
0000800100226429392758;02400984638         
0000800100226429017366;91111536015         
0000800100226429390397;05678347861         
0000800100226429390625;03654238904         
0000800100226429392880;73760889387         
0000800100226429390347;02819655360         
0000800100226429391657;00523606010         
0000800100226429392535;90738853534         
0000800100226429392262;00609656066         
0000800100226429390502;07236488755         
0000800100226429391746;79704760310         
0000800100226429277220;02195940310         
0000800100226429389387;11246509466         
0000800100226429390468;54355672620         
0000800100226429391488;08560894780         
0000800100226429392571;64420493968         
0000800100226429390905;08934753609         
0000800100226429391323;54639433034         
0000800100226429391089;03774346470         
0000800100226429392677;88701425668         
0000800100226429393149;86261061734         
0000800100226429392908;55476287000         
0000800100226429393176;02127676076         
0000800100226429391696;05290710612         
0000800100226424277440;79170463204         
0000800100226429069885;11366897455         
0000800100226429389546;57565619604         
0000800100226429390537;00416357105         
0000800100226429072652;60405253397         
0000800100226429389935;02712881168         
0000800100226429390475;50447041053         
0000800100226429392137;53168267520         
0000800100226429389526;04622958694         
0000800100226429389493;74577905000         
0000800100226429392382;08778842930         
0000800100226429389988;01767589760         
0000800100226429389985;31172237115         
0000800100226429391325;08114744707         
0000800100226429392739;09698377980         
0000800100226429393109;14574069000133      
0000800100226429391206;10915599619         
0000800100226429391154;40403939968         
0000800100226429390358;01310018170         
0000800100226429389501;21036446972         
0000800100226429390618;00214762254         
0000800100226429390719;60244418357         
0000800100226429392095;06254544806         
0000800100226429391289;65063759300         
0000800100226429391865;00519516907         
0000800100226429390699;04212423960         
0000800100226429389729;72602678520         
0000800100226429392300;23436840572         
0000800100226429393126;01889275905         
0000800100226429390178;77583825920         
0000800100226429393132;01415262543         
0000800100226429392681;01799394328         
0000800100226429392034;00007086741         
0000800100226429390004;05173437979         
0000800100226429067740;03117471596         
0000800100226429392240;03023932263         
0000800100226429391961;08564672944         
0000800100226429389845;02261443722         
0000800100226429390038;77615743672         
0000800100226429391034;03571313470         
0000800100226429392563;85451975434         
0000800100226429390754;05942366306         
0000800100226413676069;00340943343         
0000800100226429392315;64450449720         
0000800100226429389964;16659023534         
0000800100226429391909;81817606972         
0000800100226426115077;38311208549         
0000800100226429390486;06552681623         
0000800100226429391895;65693256472         
0000800100226429390491;26067345000156      
0000800100226429390412;39997243749         
0000800100226429392476;05439605525         
0000800100226429392049;78558395004         
0000800100226429392410;02880913373         
0000800100226429389990;03395868346         
0000800100226429391164;02939190208         
0000800100226429390048;61390909034         
0000800100226429389808;00468020373         
0000800100226429392478;11002021707         
0000800100226429389563;10068486650         
0000800100226429391233;09380832958         
0000800100226429390505;36785113687         
0000800100226429391062;76225437134         
0000800100226429200259;04139397152         
0000800100226429389401;04307457889         
0000800100226429392339;06216874721         
0000800100226429392876;77514980725         
0000800100226429393068;05230337702         
0000800100226429392186;35647965334         
0000800100226429390715;08200235904         
0000800100226429391015;07869338605         
0000800100226429391067;06453782405         
0000800100226429391608;01893322556         
0000800100226429390540;60058510125         
0000800100226429391304;98867989553         
0000800100226429391006;01973900300         
0000800100226429389478;61188760025         
0000800100226429390597;98033719087         
0000800100226429392818;33031207491         
0000800100226429391658;91639492372         
0000800100226429391298;01170486665         
0000800100226429389522;14474545702         
0000800100226429392812;34950826620         
0000800100226424278470;13168378747         
0000800100226429389707;10528669729         
0000800100226429391218;01228450641         
0000800100226429391935;14144770745         
0000800100226429393001;00804741107         
0000800100226429390060;01331317509         
0000800100226429389864;13879432783         
0000800100226429390155;02114101959         
0000800100226429392144;00742341453         
0000800100226429391411;69266786349         
0000800100226429391662;09387808670         
0000800100226429392194;98894056953         
0000800100226429393065;64319148991         
0000800100226429392324;12780152648         
0000800100226429390849;28831543091         
0000800100226429391057;03753695548         
0000800100226429391121;78329477487         
0000800100226429069802;10936389664         
0000800100226429391070;08533353979         
0000800100226429390942;02074384807         
0000800100226429392427;00741889331         
0000800100226429391623;99867834372         
0000800100226429390088;34388494100         
0000800100226429389446;15020609730         
0000800100226429389503;19746963830         
0000800100226429391555;47071621691         
0000800100226429389414;07541418706         
0000800100226429392574;09703195172         
0000800100226429392892;02114529398         
0000800100226429391424;07884467704         
0000800100226429391637;25294377691         
0000800100226429390167;70979057353         
0000800100226429390803;06087535993         
0000800100226429390002;04768810136         
0000800100226429392276;39790401191         
0000800100226429391718;56095155991         
0000800100226429391903;49805681220         
0000800100226429391136;05932197757         
0000800100226429389852;09365997909         
0000800100226429389870;01549251449         
0000800100226429391760;14760256814         
0000800100226429392209;46623477691         
0000800100226429389798;11211220605         
0000800100226429392375;79467482991         
0000800100226429391666;89962966787         
0000800100226429390831;11469128705         
0000800100226429391962;14920058780         
0000800100226429392038;04104373796         
0000800100226429392823;37349830610         
0000800100226429389940;02487659904         
0000800100226429389987;01021242489         
0000800100226429392008;70307900142         
0000800100226421935018;04590754541         
0000800100226429392141;74484680300         
0000800100226429390090;10333588606         
0000800100226429391686;07438745287         
0000800100226428712320;68786506749         
0000800100226429392412;60632253312         
0000800100226429389886;10756075742         
0000800100226426134754;02547861461         
0000800100226429392558;68701861387         
0000800100226429156802;32005237191         
0000800100226429391537;17942862844         
0000800100226429389548;75612356749         
0000800100226429391568;03461360597         
0000800100226429390021;70073910520         
0000800100226429390029;82433127300         
0000800100226429392279;16259769172         
0000800100226429389609;30590817949         
0000800100226429201175;51997495104         
0000800100226429392632;03814237196         
0000800100226426132350;60631345302         
0000800100226429392907;67966349772         
0000800100226429392249;56765860797         
0000800100226429392329;00964291517         
0000800100226429392682;07539267763         
0000800100226426132441;62143963343         
0000800100226426228567;04203599318         
0000800100226429393055;84045680063         
0000800100226429391497;02556390743         
0000800100226429391803;96635690182         
0000800100226426133127;78828546115         
0000800100226429391955;05417561924         
0000800100226429389811;04780083338         
0000800100226429390667;58239502768         
0000800100226429391387;29629373734         
0000800100226429389553;06217733447         
0000800100226429261628;04109357438         
0000800100226429389381;04528998424         
0000800100226429390786;03199927564         
0000800100226429390100;97029173104         
0000800100226429392226;08887585610         
0000800100226429390648;00944318339         
0000800100226429391978;04155877430         
0000800100226429393064;03285041145         
0000800100226429389489;06913397755         
0000800100226429390242;05670363752         
0000800100226429393164;71364706920         
0000800100226429283377;80338399100         
0000800100226426228831;05745058730         
0000800100226429392207;85515965434         
0000800100226429389487;03808687339         
0000800100226429391607;01852215488         
0000800100226429391787;67738036087         
0000800100226429391332;04600475666         
0000800100226429391161;10378918486         
0000800100226429392406;84651865704         
0000800100226429390470;90794621791         
0000800100226429391848;08446024187         
0000800100226429389857;05259863402         
0000800100226429392190;02642506134         
0000800100226429390146;11294051415         
0000800100226429392930;01277190321         
0000800100226429392762;09694077699         
0000800100226429392875;13749854300         
0000800100226426211284;72695978987         
0000800100226429390153;05766348673         
0000800100226429391841;96209887600         
0000800100226429391583;04743666341         
0000800100226429266821;05706070946         
0000800100226429391428;96131748500         
0000800100226429392885;29838819204         
0000800100226429391421;57646449091         
0000800100226429390856;30984815104         
0000800100226428826143;18629415304         
0000800100226429393044;02771069075         
0000800100226429392634;16730291672         
0000800100226429390714;10003659640         
0000800100226429390660;04173792506         
0000800100226429389899;05564788605         
0000800100226429389565;05176631555         
0000800100226429392774;50330888668         
0000800100226429390664;03734662770         
0000800100226429390214;05291122994         
0000800100226429391352;91217059415         
0000800100226421154803;60153059249         
0000800100226429390841;03874413950         
0000800100226429390253;06540249446         
0000800100226429391957;12679747704         
0000800100226429393105;10173614957         
0000800100226429389582;14114948732         
0000800100226429392336;93665598915         
0000800100226429389608;68213298691         
0000800100226429390955;92311822268         
0000800100226429393108;17929460000100      
0000800100226429393103;09120540930         
0000800100226429390615;24722128000127      
0000800100226429391606;51050315804         
0000800100226429391744;02444861400         
0000800100226429392112;80005454972         
0000800100226429391630;78674506704         
0000800100226429391416;00337309205         
0000800100226417256974;69792453768         
0000800100226429390806;13403025780         
0000800100226429392477;98970739300         
0000800100226429392409;60453933335         
0000800100226429393205;47676370744         
0000800100226429392834;24590703220         
0000800100226429393121;05225909779         
0000800100226429390489;94394172500         
0000800100226429392638;03394156067         
0000800100226429392352;06769672995         
0000800100226429391945;42923590597         
0000800100226429390254;72100001434         
0000800100226429390138;28246536000100      
000080010022646664332;06847491736         
0000800100226429392486;16551057799         
0000800100226429392986;05032151394         
0000800100226429392849;90324269749         
0000800100226429390036;19707989000104      
0000800100226429389607;95346864091         
0000800100226429392630;07340547932         
0000800100226429392070;59223634687         
0000800100226429391925;81957980478         
0000800100226429393025;76910156749         
0000800100226429390862;74094823115         
0000800100226429393063;04122041007         
0000800100226429393159;03702919996         
0000800100226429390193;01404325310         
0000800100226429391124;85313335715         
0000800100226429391081;03621365303         
0000800100226429392837;20363958215         
0000800100226429393125;05575930939         
0000800100226429390643;02312167778         
0000800100226429392700;11966458762         
0000800100226429390463;80709850468         
0000800100226429390054;12544563680         
0000800100226429390422;04235336495         
0000800100226429390168;08452697805         
0000800100226429389516;13254065115         
0000800100226429390186;26108625000165      
0000800100226429392111;43170765604         
0000800100226429390443;06423726914         
0000800100226429391542;81835205372         
0000800100226429390297;12476513717         
0000800100226429392579;15866362783         
0000800100226429391673;00761313788         
0000800100226429391450;04806053945         
0000800100226429392702;07507560635         
0000800100226429390182;13778649604         
0000800100226429392232;08843337440         
0000800100226429392025;56707924753         
0000800100226429392722;64551695734         
0000800100226429392135;28712420620         
0000800100226429391476;82890030563         
0000800100226429393133;10723187762         
0000800100226429391023;02631328973         
0000800100226429391587;13824609703         
0000800100226429390270;70548846715         
0000800100226429392560;05246449939         
0000800100226429393029;98402153100         
0000800100226429391633;08274657187         
0000800100226429393071;47033355653         
0000800100226429391588;03609246383         
0000800100226429392713;98043048568         
0000800100226429392692;96372257653         
0000800100226429392726;69374163420         
0000800100226429391921;07856183683         
0000800100226429389834;60543361772         
0000800100226429390366;02303978750         
0000800100226429389692;25236784468         
0000800100226429392705;37113488668         
0000800100226425920059;99714280168         
0000800100226429390389;05398793632         
0000800100226429391079;25712649829         
0000800100226429391820;16667397740         
0000800100226429391160;09810395612         
0000800100226429392332;82777721149         
0000800100226429391922;00293959170         
0000800100226429391094;00299316904         
0000800100226429389676;31303463687         
0000800100226429392009;94346623204         
0000800100226429392910;16657375816         
0000800100226429390987;04858124606         
0000800100226429392903;02944822616         
0000800100226429392680;11665824778         
0000800100226429391708;78675553315         
0000800100226429392397;03193955531         
0000800100226429390028;05152096510         
0000800100226429389937;51932210334         
0000800100226429392377;24632970000178      
0000800100226429391382;04662935342         
0000800100226426267000;03114555144         
0000800100226429392298;00897381106         
0000800100226429390995;66370310387         
0000800100226429391519;19163142600         
0000800100226429390780;80261310291         
0000800100226429280696;37836161234         
0000800100226429392404;44652925549         
0000800100226429389933;45442991368         
0000800100226429391926;97188999368         
0000800100226429390731;07253962966         
0000800100226429392923;55594034749         
0000800100226429389403;25964399134         
0000800100226429389952;29486955034         
0000800100226429391063;10998361747         
0000800100226429392452;26182610620         
0000800100226429390067;05164313740         
0000800100226429392578;69692165515         
0000800100226429393144;01846507200         
0000800100226429153158;97786470972         
0000800100226429391986;91900654334         
0000800100226429390695;06907061112         
0000800100226429390464;01937813444         
0000800100226429391237;03912701415         
0000800100226429389849;08573675799         
0000800100226429275239;00014554356         
0000800100226429390889;17254337534         
0000800100226429392614;05748741512         
0000800100226429392263;08963455483         
0000800100226429390591;40402495772         
0000800100226429390137;02007075318         
0000800100226429390711;12752273681         
0000800100226429389317;54536901000         
0000800100226429389551;01341360717         
0000800100226429392550;00288124685         
0000800100226429389545;02431329720         
0000800100226429392470;03739752793         
0000800100226429393087;39280390678         
0000800100226429391862;00853383545         
0000800100226429391041;04601376114         
0000800100226429391518;14966840287         
0000800100226428717326;09072041631         
0000800100226429391109;07526376305         
0000800100226429392236;80595901204         
0000800100226429389329;27238610744         
0000800100226429392310;07418360924         
0000800100226429389355;51940175615         
0000800100226429391761;03515570594         
0000800100226429390812;05902295165         
0000800100226429390693;02662805013         
0000800100226429390634;02257598458         
0000800100226429389339;15288474745         
0000800100226429393017;04715386984         
0000800100226429390853;13493874000170      
0000800100226429391037;02468249135         
0000800100226429392640;05491512494         
0000800100226429391138;30387590749         
0000800100226429391732;09715088104         
0000800100226429392399;45741808620         
0000800100226429390866;28872240182         
0000800100226429391831;01596678798         
0000800100226429392723;04883194124         
0000800100226429389657;79801960825         
0000800100226429263990;75074907004         
0000800100226429389903;78503442949         
0000800100226426245806;40480020906         
0000800100226426128401;05410236165         
0000800100226420008928;83763180397         
0000800100226417485553;05486576617         
0000800100226428999568;27951189472         
0000800100226429291028;21227960000169      
0000800100226429106782;52402282487         
0000800100226426013438;24551309320         
0000800100226412752583;20469217553         
0000800100226428648478;07692404372         
0000800100226425841900;30018706134         
0000800100226422391020;11224453778         
0000800100226429391045;38587653504         
0000800100226429392784;38039869404         
0000800100226429392706;37943499620         
0000800100226422034830;03589650559         
0000800100226429391619;92171699353         
0000800100226429392521;61054479305         
0000800100226429389343;38370603220         
0000800100226429392212;13728873187         
0000800100226429390056;05031844973         
0000800100226429390637;64095169400         
0000800100226429390758;13810703702         
0000800100226429390010;12671236727         
0000800100226429392068;60045140200         
0000800100226418008072;02795448122         
0000800100226429389457;08082935324         
0000800100226429390001;54825040934         
0000800100226429392289;09593169652         
0000800100226429390384;39345483004         
0000800100226429391653;04141519766         
0000800100226429389922;01183577788         
0000800100226429393014;91420350900         
0000800100226429391014;00453792111         
0000800100226429390174;00343220946         
0000800100226429389354;02554179506         
0000800100226429390050;07996279683         
0000800100226429281531;14783457727         
0000800100226429392873;86235071507         
0000800100226429391684;07862516702         
0000800100226429389863;01126372722         
0000800100226429391677;05091761942         
0000800100226429391648;35616784915         
0000800100226429390767;01260494675         
0000800100226429391308;03159546047         
0000800100226429390566;02915008620         
0000800100226429392664;03006959426         
0000800100226429392709;99091569972         
0000800100226429391412;32309837857         
0000800100226429390296;00118995570         
0000800100226429391358;02605566293         
0000800100226422055681;91890225991         
0000800100226429390419;28518900425         
0000800100226429389749;26060567000147      
0000800100226429392968;37405915876         
0000800100226429389866;91467250244         
0000800100226429392125;18508820291         
0000800100226429391407;00859081427         
0000800100226429276733;45461899315         
0000800100226428650082;35008199404         
0000800100226429390590;13585026761         
0000800100226429392561;04158779707         
0000800100226429391374;02589695390         
0000800100226429392331;97803375049         
0000800100226426228734;05126967649         
0000800100226429392048;05352997960         
0000800100226429390980;10295494948         
0000800100226429389606;39645223253         
0000800100226429390164;01672245303         
0000800100226428712416;73257532768         
0000800100226418387463;61331570700         
0000800100226429389972;05514832708         
0000800100226429390923;26047947000141      
0000800100226429391811;44536909753         
0000800100226429390317;04056105308         
0000800100226429391843;07240178609         
0000800100226429390431;90512677034         
0000800100226429280054;73440469115         
0000800100226428990412;02794322834         
0000800100226429390436;01135714703         
0000800100226429391360;23788780525         
0000800100226426419752;19921900463         
0000800100226428333054;04150123683         
0000800100226429392858;72818662168         
0000800100226429392928;06406908317         
0000800100226429389659;02234260752         
0000800100226429390752;13543863703         
0000800100226429392393;35027123876         
0000800100226429391838;01870686900         
0000800100226429393711;44248822334         
0000800100226429393926;84063386368         
0000800100226429393585;38570475500         
0000800100226429037457;41000889734         
0000800100226429396260;70523948476         
0000800100226429394214;26348774000100      
0000800100226429395666;06556927627         
0000800100226429396558;12257259769         
0000800100226429393567;12790349711         
0000800100226429394721;86939327134         
0000800100226429393581;17370221334         
0000800100226429396653;00720673739         
0000800100226429396504;24327152000161      
0000800100226429396362;47014938720         
0000800100226429395966;61738450759         
0000800100226429395832;12098123639         
0000800100226429393260;00143845314         
0000800100226429394427;00510110185         
0000800100226429396422;26024574851         
0000800100226429394810;03893087141         
0000800100226429393707;76682501749         
0000800100226429394641;04059490148         
0000800100226429396190;07989064642         
0000800100226429394578;05534930195         
0000800100226429394579;29973171772         
0000800100226429070456;16035945740         
0000800100226429393469;47218975291         
0000800100226429071544;34645462415         
0000800100226429396431;43687148491         
0000800100226429393979;52879089204         
0000800100226429393554;01555008135         
0000800100226429395702;58004394515         
0000800100226429396115;75333155615         
0000800100226429396095;01334317208         
0000800100226429113880;01931399360         
0000800100226429393467;12716377669         
0000800100226429393889;44693990000         
0000800100226429394193;96518464704         
0000800100226429390923;26047947000141      
0000800100226429393412;07021167776         
0000800100226429395786;11035290723         
0000800100226429394619;81174489120         
0000800100226429395268;87038781472         
0000800100226429395791;38110580700         
0000800100226428993515;08606458783         
0000800100226429396745;07888309291         
0000800100226429393722;08489635633         
0000800100226429394071;63759730230         
0000800100226426222968;05783074640         
0000800100226429197019;02446681085         
0000800100226429393440;71590498704         
0000800100226429396151;85783048704         
0000800100226429395273;60673795381         
0000800100226429395322;02745537911         
0000800100226429394250;59079479934         
0000800100226429262969;08989746744         
0000800100226428710103;00017071674         
0000800100226422441269;08505355733         
0000800100226426404947;46901248334         
0000800100226428955199;09923556999         
0000800100226428808025;08588864568         
0000800100226429394191;25936697487         
0000800100226429393724;01139278789         
0000800100226429076137;07831349758         
0000800100226429394261;53246667187         
0000800100226429396158;07261273619         
0000800100226429394700;16100005794         
0000800100226429395986;41883764904         
0000800100226429395451;00433542381         
0000800100226429394267;07342770914         
0000800100226429395487;42738326072         
0000800100226429395812;07086780766         
0000800100226429394759;00325240728         
0000800100226429395066;06430236072         
0000800100226429393671;07217937388         
0000800100226429394333;02770206036         
0000800100226429390860;38037980359         
0000800100226429396654;06035090702         
0000800100226429393480;41528697987         
0000800100226419975344;07453529603         
0000800100226429393273;05618063816         
0000800100226429393646;26076806000157      
0000800100226429396609;00723461325         
0000800100226429395400;00011876352         
0000800100226426430383;14662254752         
0000800100226429395335;60180962345         
0000800100226429394653;70109451600         
0000800100226429396588;87313847149         
0000800100226429395309;06447342482         
0000800100226429394507;01352743116         
0000800100226429071011;25322770682         
0000800100226429396043;10914580493         
0000800100226429395548;09956234737         
0000800100226429396543;01587157721         
0000800100226429394256;28146154832         
0000800100226429396381;41854519468         
0000800100226429393644;04884750900         
0000800100226429395841;05066902619         
0000800100226429394441;03315875723         
0000800100226429393566;13972340168         
0000800100226429395573;62413511687         
0000800100226429395621;60229632904         
0000800100226429393519;26001888000170      
0000800100226426155973;93844824120         
0000800100226429394137;65127730987         
0000800100226429395995;05763031512         
0000800100226429393318;04219715924         
0000800100226429396657;08339946706         
0000800100226429393346;96823704500         
0000800100226429393336;74887890087         
0000800100226429041116;93661720910         
0000800100226426229962;18831893491         
0000800100226429394853;61712817787         
0000800100226429396488;25089536368         
0000800100226429393449;40287793753         
0000800100226429396107;09501172422         
0000800100226429396416;08692447790         
0000800100226429395467;06845519692         
0000800100226422794737;90423879553         
0000800100226429395388;03606389612         
0000800100226429393712;88390284391         
0000800100226429393710;03257258100         
0000800100226429394910;30576539449         
0000800100226429394945;05917426406         
0000800100226429392494;01891780867         
0000800100226429394260;19649584234         
0000800100226429394667;53267354153         
0000800100226429394042;13389235795         
0000800100226429395350;00482189959         
0000800100226429277031;09768058471         
0000800100226426266622;00599184116         
0000800100226429394918;81406673749         
0000800100226429396180;83487158000         
0000800100226429394798;00061261971         
0000800100226429394416;84687991149         
0000800100226429396078;00286932300         
0000800100226429394096;02679449770         
0000800100226429040683;91089018991         
0000800100226429394981;23088362704         
0000800100226429396659;19387156168         
0000800100226429393828;04261583933         
0000800100226429396910;01506191703         
0000800100226429394023;03164500300         
0000800100226429396942;55360971649         
0000800100226429394059;06721200970         
0000800100226429394691;66848393487         
0000800100226429158061;72570806153         
0000800100226429396498;02828267776         
0000800100226429394832;04612873661         
0000800100226429396689;38769212368         
0000800100226429395990;07916561956         
0000800100226429394803;09165757726         
0000800100226429394690;18625550959         
0000800100226429394590;95846840787         
0000800100226429037795;59336609068         
0000800100226429063979;11374586234         
0000800100226429395583;07085130938         
0000800100226429395025;01847664784         
0000800100226429396056;81433964449         
0000800100226429395700;22760741400         
0000800100226429020156;27817936803         
0000800100226429393340;88930920004         
0000800100226428715787;09585525682         
0000800100226429393663;04572731357         
0000800100226429393861;49489798649         
0000800100226422390696;08260005417         
0000800100226429393298;69926956653         
0000800100226429395677;47566647768         
0000800100226429395931;00015250261         
0000800100226429396951;11542183766         
0000800100226429394139;57909199953         
0000800100226429396818;08926717852         
0000800100226429396465;18320244749         
0000800100226429396806;39617858134         
0000800100226429396949;89705742120         
0000800100226428711322;16035755291         
0000800100226429066724;00706236351         
0000800100226429393443;09872680310         
0000800100226429393588;11339829720         
0000800100226429393921;32818998549         
